<?xml version="1.0" encoding="UTF-8"?>
<svg width="212px" height="60px" viewBox="0 0 212 60" version="1.1" xmlns="http://www.w3.org/2000/svg" xmlns:xlink="http://www.w3.org/1999/xlink">
    <!-- Generator: Sketch 43.2 (39069) - http://www.bohemiancoding.com/sketch -->
    <title>logo_veb-capital</title>
    <desc>Created with Sketch.</desc>
    <defs></defs>
    <g id="Homepage" stroke="none" stroke-width="1" fill="none" fill-rule="evenodd">
        <g id="001_website_veb-capital_v1_i1-copy" transform="translate(-29.000000, -39.000000)">
            <g id="logo_veb-capital" transform="translate(29.000000, 39.000000)">
                <path d="M25.4175,39.0224 L16.5425,39.0224 L16.5425,43.7424 L25.4175,43.7424 C27.4195,43.7424 28.1565,42.6424 28.1565,41.3674 C28.1565,40.0974 27.4195,39.0224 25.4175,39.0224" id="Fill-1" fill="#2783B9"></path>
                <path d="M68.6772,38.8984 L60.7562,38.8984 L60.7562,43.7174 L68.6772,43.7174 C70.6572,43.7174 71.4112,42.6194 71.4112,41.3214 C71.4112,40.0264 70.6572,38.8984 68.6772,38.8984" id="Fill-3" fill="#2783B9"></path>
                <path d="M27.4209,33.8369 C27.4209,32.5919 26.6379,31.4209 24.6819,31.4209 L16.5429,31.4209 L16.5429,36.0379 L24.6819,36.0379 C26.6599,36.0379 27.4209,35.0639 27.4209,33.8369" id="Fill-5" fill="#2783B9"></path>
                <path d="M68.5527,47.3594 L56.4697,47.3594 L56.4697,43.7414 L56.4697,31.4934 L56.4697,27.7774 L74.6667,27.7774 L74.6667,31.4194 L70.4077,31.4194 L60.7537,31.4194 L60.7537,35.2794 L68.6777,35.2794 C73.8597,35.2794 75.8397,37.8234 75.8397,41.2744 C75.8397,44.7644 73.7097,47.3594 68.5527,47.3594 L68.5527,47.3594 Z M44.5477,47.3594 L34.8587,47.3594 L34.8587,43.7164 L44.1507,43.7164 C46.8917,43.7164 48.9087,42.0044 49.5207,39.3424 L36.9537,39.3424 L36.9537,35.7944 L49.5207,35.7944 C48.9047,33.1374 46.8897,31.4314 44.1507,31.4314 L44.1507,31.4194 L34.8587,31.4194 L34.8587,27.7774 L44.5477,27.7774 C50.2847,27.7774 54.1937,31.7424 54.1937,37.5634 C54.1937,43.3864 50.2847,47.3594 44.5477,47.3594 L44.5477,47.3594 Z M25.2927,47.3594 L12.2607,47.3594 L12.2607,27.7774 L24.5317,27.7774 C29.6967,27.7774 31.8457,29.9284 31.8457,33.1524 C31.8457,34.9864 31.1117,36.3544 29.4737,37.1624 C31.6527,37.9694 32.5797,39.5604 32.5797,41.7074 C32.5797,44.9854 30.4507,47.3594 25.2927,47.3594 L25.2927,47.3594 Z M26.9277,0.8594 L0.0077,27.7774 L0.0047,59.6104 L74.6667,59.6104 L101.5857,32.6924 L101.5857,0.8594 L26.9277,0.8594 Z" id="Fill-7" fill="#008FD4"></path>
                <polygon id="Fill-9" fill="#515251" points="117.3027 0.8638 117.3027 8.1758 117.3757 8.1758 123.5617 0.8638 127.6957 0.8638 120.5527 8.6138 128.1357 17.9808 123.7327 17.9808 117.3757 9.4698 117.3027 9.4698 117.3027 17.9808 113.8307 17.9808 113.8307 0.8638"></polygon>
                <path d="M130.6748,5.9507 C132.1928,5.3387 133.6108,5.1207 135.3208,5.1207 C140.4558,5.1207 140.9218,8.0807 140.9218,9.9827 L140.9218,17.9797 L137.6688,17.9797 L137.6688,16.1187 L137.6218,16.1187 C137.3558,16.6597 136.4248,18.1777 133.6608,18.1777 C130.4568,18.1777 129.1598,16.2927 129.1598,14.3127 C129.1598,12.5767 130.0658,10.1297 135.4438,10.1297 C136.0558,10.1297 136.6918,10.1537 137.3018,10.1537 L137.5978,10.1537 L137.5978,9.6177 C137.5978,8.2227 136.2508,7.4417 134.7338,7.4417 C133.6348,7.4417 132.3638,7.6127 130.6748,8.5647 L130.6748,5.9507 Z M137.0338,12.2317 C135.2008,12.2317 132.5348,12.2587 132.5348,14.2877 C132.5348,15.1917 133.0988,15.9237 134.5648,15.9237 C135.9328,15.9237 137.5978,15.2867 137.5978,12.5507 L137.5978,12.2317 L137.0338,12.2317 Z" id="Fill-11" fill="#515251"></path>
                <polygon id="Fill-13" fill="#515251" points="155.8857 5.3149 155.8857 17.9799 152.5647 17.9799 152.5647 7.7579 147.4267 7.7579 147.4267 17.9799 144.1027 17.9799 144.1027 5.3149"></polygon>
                <polygon id="Fill-15" fill="#515251" points="162.3916 5.3149 162.3916 11.9649 162.2926 14.2399 162.3396 14.2399 167.7956 5.3149 171.5116 5.3149 171.5116 17.9799 168.1876 17.9799 168.1876 11.4239 168.2836 9.0529 168.2116 9.0529 162.6116 17.9799 159.0676 17.9799 159.0676 5.3149"></polygon>
                <polygon id="Fill-17" fill="#515251" points="184.5928 5.3149 184.5928 7.7579 180.6318 7.7579 180.6318 17.9799 177.3058 17.9799 177.3058 7.7579 173.3448 7.7579 173.3448 5.3149"></polygon>
                <path d="M187.208,5.9507 C188.723,5.3387 190.143,5.1207 191.854,5.1207 C196.989,5.1207 197.454,8.0807 197.454,9.9827 L197.454,17.9797 L194.201,17.9797 L194.201,16.1187 L194.152,16.1187 C193.885,16.6597 192.955,18.1777 190.191,18.1777 C186.987,18.1777 185.692,16.2927 185.692,14.3127 C185.692,12.5767 186.596,10.1297 191.976,10.1297 C192.585,10.1297 193.222,10.1537 193.834,10.1537 L194.127,10.1537 L194.127,9.6177 C194.127,8.2227 192.781,7.4417 191.266,7.4417 C190.167,7.4417 188.895,7.6127 187.208,8.5647 L187.208,5.9507 Z M193.566,12.2317 C191.733,12.2317 189.067,12.2587 189.067,14.2877 C189.067,15.1917 189.628,15.9237 191.095,15.9237 C192.465,15.9237 194.127,15.2867 194.127,12.5507 L194.127,12.2317 L193.566,12.2317 Z" id="Fill-19" fill="#515251"></path>
                <path d="M211.7588,5.3149 L211.7588,17.9799 L208.4328,17.9799 L208.4328,7.7579 L204.5218,7.7579 L204.5218,10.5679 C204.5218,16.8569 203.9338,18.1779 200.5848,18.1779 C200.0468,18.1779 199.6548,18.1509 199.1648,17.9799 L199.3128,15.4369 C199.5078,15.5099 199.7008,15.5339 199.8978,15.5339 C201.8068,15.5339 201.5618,13.2849 201.5618,10.5679 L201.5618,5.3149 L211.7588,5.3149 Z" id="Fill-21" fill="#515251"></path>
            </g>
        </g>
    </g>
</svg>